features,f1_score
"['Name of Song', 'Type of Dance', 'Count', 'BPM', 'mean_chroma_10', 'mean_spectral_centroid', 'maxfreq_30_40']",0.6897192205882657
"['Name of Song', 'Type of Dance', 'Count', 'BPM', 'mean_chroma_10', 'mean_spectral_centroid', 'maxfreq_40_80']",0.6962481617593507
"['Name of Song', 'Type of Dance', 'Count', 'BPM', 'mean_chroma_10', 'mean_spectral_centroid', 'maxfreq_80_120']",0.6095124446552587
"['Name of Song', 'Type of Dance', 'Count', 'BPM', 'mean_chroma_10', 'mean_spectral_centroid', 'maxfreq_120_180']",0.6803464348381941
"['Name of Song', 'Type of Dance', 'Count', 'BPM', 'mean_chroma_10', 'mean_spectral_centroid', 'maxfreq_180_300']",0.6286480512223424
"['Name of Song', 'Type of Dance', 'Count', 'BPM', 'mean_chroma_10', 'mean_spectral_centroid', 'mean_zcr']",0.6716056385410935
"['Name of Song', 'Type of Dance', 'Count', 'BPM', 'mean_chroma_10', 'mean_spectral_centroid', 'std_zcr']",0.5938055302892148
"['Name of Song', 'Type of Dance', 'Count', 'BPM', 'mean_chroma_10', 'mean_spectral_centroid', 'mean_energy']",0.6264177386078206
"['Name of Song', 'Type of Dance', 'Count', 'BPM', 'mean_chroma_10', 'mean_spectral_centroid', 'std_energy']",0.6009101684523455
"['Name of Song', 'Type of Dance', 'Count', 'BPM', 'mean_chroma_10', 'mean_spectral_centroid', 'mean_energy_entropy']",0.5804305118139713
"['Name of Song', 'Type of Dance', 'Count', 'BPM', 'mean_chroma_10', 'mean_spectral_centroid', 'std_energy_entropy']",0.6249519632805098
"['Name of Song', 'Type of Dance', 'Count', 'BPM', 'mean_chroma_10', 'mean_spectral_centroid', 'std_spectral_centroid']",0.6613562090216922
"['Name of Song', 'Type of Dance', 'Count', 'BPM', 'mean_chroma_10', 'mean_spectral_centroid', 'mean_spectral_spread']",0.5265577095627175
"['Name of Song', 'Type of Dance', 'Count', 'BPM', 'mean_chroma_10', 'mean_spectral_centroid', 'std_spectral_spread']",0.5799325586750396
"['Name of Song', 'Type of Dance', 'Count', 'BPM', 'mean_chroma_10', 'mean_spectral_centroid', 'mean_spectral_entropy']",0.5695657335802518
"['Name of Song', 'Type of Dance', 'Count', 'BPM', 'mean_chroma_10', 'mean_spectral_centroid', 'std_spectral_entropy']",0.5871252655282404
"['Name of Song', 'Type of Dance', 'Count', 'BPM', 'mean_chroma_10', 'mean_spectral_centroid', 'mean_spectral_flux']",0.6519262950634486
"['Name of Song', 'Type of Dance', 'Count', 'BPM', 'mean_chroma_10', 'mean_spectral_centroid', 'std_spectral_flux']",0.6881533400011866
"['Name of Song', 'Type of Dance', 'Count', 'BPM', 'mean_chroma_10', 'mean_spectral_centroid', 'mean_spectral_rolloff']",0.6019836727454548
"['Name of Song', 'Type of Dance', 'Count', 'BPM', 'mean_chroma_10', 'mean_spectral_centroid', 'std_spectral_rolloff']",0.5780684022821575
"['Name of Song', 'Type of Dance', 'Count', 'BPM', 'mean_chroma_10', 'mean_spectral_centroid', 'mean_mfcc_1']",0.5698470368917765
"['Name of Song', 'Type of Dance', 'Count', 'BPM', 'mean_chroma_10', 'mean_spectral_centroid', 'std_mfcc_1']",0.5919381667577706
"['Name of Song', 'Type of Dance', 'Count', 'BPM', 'mean_chroma_10', 'mean_spectral_centroid', 'mean_mfcc_2']",0.5635788796095947
"['Name of Song', 'Type of Dance', 'Count', 'BPM', 'mean_chroma_10', 'mean_spectral_centroid', 'std_mfcc_2']",0.5907369206816726
"['Name of Song', 'Type of Dance', 'Count', 'BPM', 'mean_chroma_10', 'mean_spectral_centroid', 'mean_mfcc_3']",0.6444702480477141
"['Name of Song', 'Type of Dance', 'Count', 'BPM', 'mean_chroma_10', 'mean_spectral_centroid', 'std_mfcc_3']",0.6435720839161182
"['Name of Song', 'Type of Dance', 'Count', 'BPM', 'mean_chroma_10', 'mean_spectral_centroid', 'mean_mfcc_4']",0.6075433798744458
"['Name of Song', 'Type of Dance', 'Count', 'BPM', 'mean_chroma_10', 'mean_spectral_centroid', 'std_mfcc_4']",0.6236341807122561
"['Name of Song', 'Type of Dance', 'Count', 'BPM', 'mean_chroma_10', 'mean_spectral_centroid', 'mean_mfcc_5']",0.6392809148399387
"['Name of Song', 'Type of Dance', 'Count', 'BPM', 'mean_chroma_10', 'mean_spectral_centroid', 'std_mfcc_5']",0.6376197012034925
"['Name of Song', 'Type of Dance', 'Count', 'BPM', 'mean_chroma_10', 'mean_spectral_centroid', 'mean_mfcc_6']",0.5907265884299714
"['Name of Song', 'Type of Dance', 'Count', 'BPM', 'mean_chroma_10', 'mean_spectral_centroid', 'std_mfcc_6']",0.6073001837930814
"['Name of Song', 'Type of Dance', 'Count', 'BPM', 'mean_chroma_10', 'mean_spectral_centroid', 'mean_mfcc_7']",0.6704520202412092
"['Name of Song', 'Type of Dance', 'Count', 'BPM', 'mean_chroma_10', 'mean_spectral_centroid', 'std_mfcc_7']",0.6450408622299658
"['Name of Song', 'Type of Dance', 'Count', 'BPM', 'mean_chroma_10', 'mean_spectral_centroid', 'mean_mfcc_8']",0.627368988545706
"['Name of Song', 'Type of Dance', 'Count', 'BPM', 'mean_chroma_10', 'mean_spectral_centroid', 'std_mfcc_8']",0.6331992874005261
"['Name of Song', 'Type of Dance', 'Count', 'BPM', 'mean_chroma_10', 'mean_spectral_centroid', 'mean_mfcc_9']",0.6259117476310803
"['Name of Song', 'Type of Dance', 'Count', 'BPM', 'mean_chroma_10', 'mean_spectral_centroid', 'std_mfcc_9']",0.6753327730021247
"['Name of Song', 'Type of Dance', 'Count', 'BPM', 'mean_chroma_10', 'mean_spectral_centroid', 'mean_mfcc_10']",0.6556542794280739
"['Name of Song', 'Type of Dance', 'Count', 'BPM', 'mean_chroma_10', 'mean_spectral_centroid', 'std_mfcc_10']",0.6763891841665675
"['Name of Song', 'Type of Dance', 'Count', 'BPM', 'mean_chroma_10', 'mean_spectral_centroid', 'mean_mfcc_11']",0.6599038493924132
"['Name of Song', 'Type of Dance', 'Count', 'BPM', 'mean_chroma_10', 'mean_spectral_centroid', 'std_mfcc_11']",0.6805736351313664
"['Name of Song', 'Type of Dance', 'Count', 'BPM', 'mean_chroma_10', 'mean_spectral_centroid', 'mean_mfcc_12']",0.569492768998205
"['Name of Song', 'Type of Dance', 'Count', 'BPM', 'mean_chroma_10', 'mean_spectral_centroid', 'std_mfcc_12']",0.6357281294615478
"['Name of Song', 'Type of Dance', 'Count', 'BPM', 'mean_chroma_10', 'mean_spectral_centroid', 'mean_mfcc_13']",0.6290830868664568
"['Name of Song', 'Type of Dance', 'Count', 'BPM', 'mean_chroma_10', 'mean_spectral_centroid', 'std_mfcc_13']",0.6746660117278745
"['Name of Song', 'Type of Dance', 'Count', 'BPM', 'mean_chroma_10', 'mean_spectral_centroid', 'mean_chroma_1']",0.6326890550920341
"['Name of Song', 'Type of Dance', 'Count', 'BPM', 'mean_chroma_10', 'mean_spectral_centroid', 'std_chroma_1']",0.653092803749678
"['Name of Song', 'Type of Dance', 'Count', 'BPM', 'mean_chroma_10', 'mean_spectral_centroid', 'mean_chroma_2']",0.6146384221936714
"['Name of Song', 'Type of Dance', 'Count', 'BPM', 'mean_chroma_10', 'mean_spectral_centroid', 'std_chroma_2']",0.6361854866793266
"['Name of Song', 'Type of Dance', 'Count', 'BPM', 'mean_chroma_10', 'mean_spectral_centroid', 'mean_chroma_3']",0.5764162638398328
"['Name of Song', 'Type of Dance', 'Count', 'BPM', 'mean_chroma_10', 'mean_spectral_centroid', 'std_chroma_3']",0.6054349727092165
"['Name of Song', 'Type of Dance', 'Count', 'BPM', 'mean_chroma_10', 'mean_spectral_centroid', 'mean_chroma_4']",0.626755465532047
"['Name of Song', 'Type of Dance', 'Count', 'BPM', 'mean_chroma_10', 'mean_spectral_centroid', 'std_chroma_4']",0.6707250895153588
"['Name of Song', 'Type of Dance', 'Count', 'BPM', 'mean_chroma_10', 'mean_spectral_centroid', 'mean_chroma_5']",0.6140141831373309
"['Name of Song', 'Type of Dance', 'Count', 'BPM', 'mean_chroma_10', 'mean_spectral_centroid', 'std_chroma_5']",0.5657460043673818
"['Name of Song', 'Type of Dance', 'Count', 'BPM', 'mean_chroma_10', 'mean_spectral_centroid', 'mean_chroma_6']",0.6116233679368372
"['Name of Song', 'Type of Dance', 'Count', 'BPM', 'mean_chroma_10', 'mean_spectral_centroid', 'std_chroma_6']",0.6663889772981486
"['Name of Song', 'Type of Dance', 'Count', 'BPM', 'mean_chroma_10', 'mean_spectral_centroid', 'mean_chroma_7']",0.6274977790927537
"['Name of Song', 'Type of Dance', 'Count', 'BPM', 'mean_chroma_10', 'mean_spectral_centroid', 'std_chroma_7']",0.6391491086997425
"['Name of Song', 'Type of Dance', 'Count', 'BPM', 'mean_chroma_10', 'mean_spectral_centroid', 'mean_chroma_8']",0.6608160355014926
"['Name of Song', 'Type of Dance', 'Count', 'BPM', 'mean_chroma_10', 'mean_spectral_centroid', 'std_chroma_8']",0.6094899923583978
"['Name of Song', 'Type of Dance', 'Count', 'BPM', 'mean_chroma_10', 'mean_spectral_centroid', 'mean_chroma_9']",0.7013703927328453
"['Name of Song', 'Type of Dance', 'Count', 'BPM', 'mean_chroma_10', 'mean_spectral_centroid', 'std_chroma_9']",0.6014667083147011
"['Name of Song', 'Type of Dance', 'Count', 'BPM', 'mean_chroma_10', 'mean_spectral_centroid', 'std_chroma_10']",0.6806796525450008
"['Name of Song', 'Type of Dance', 'Count', 'BPM', 'mean_chroma_10', 'mean_spectral_centroid', 'mean_chroma_11']",0.6817073677451754
"['Name of Song', 'Type of Dance', 'Count', 'BPM', 'mean_chroma_10', 'mean_spectral_centroid', 'std_chroma_11']",0.6438431544288351
"['Name of Song', 'Type of Dance', 'Count', 'BPM', 'mean_chroma_10', 'mean_spectral_centroid', 'mean_chroma_12']",0.6835521870335574
"['Name of Song', 'Type of Dance', 'Count', 'BPM', 'mean_chroma_10', 'mean_spectral_centroid', 'std_chroma_12']",0.6524257995977552
"['Name of Song', 'Type of Dance', 'Count', 'BPM', 'mean_chroma_10', 'mean_spectral_centroid', 'mean_chroma_std']",0.6105639731600668
"['Name of Song', 'Type of Dance', 'Count', 'BPM', 'mean_chroma_10', 'mean_spectral_centroid', 'std_chroma_std']",0.620305434112152
